…
q2 <- q2 %>% 
  mutate(League = case_when(
    str_sub(Division,1,1) == "N" ~ "NL", 
    str_sub(Division,1,1) == "A" ~ "AL"))

q2 <- left_join(q2, q2_4)

q2 <- q2 %>% 
  mutate(Pct = ((W/(W+L)) * 100)) %>% 
  arrange(Division, desc(Pct))

q2

## # A tibble: 30 × 7
##    Team               Abbr  Division   League     W     L   Pct
##    <chr>              <chr> <chr>      <chr>  <dbl> <dbl> <dbl>
##  1 Chicago White Sox  CHW   AL Central AL        93    69  57.4
##  2 Cleveland Indians  CLE   AL Central AL        80    82  49.4
##  3 Detroit Tigers     DET   AL Central AL        77    85  47.5
##  4 Kansas City Royals KCR   AL Central AL        74    88  45.7
##  5 Minnesota Twins    MIN   AL Central AL        73    89  45.1
##  6 Tampa Bay Rays     TBR   AL East    AL       100    62  61.7
##  7 Boston Red Sox     BOS   AL East    AL        92    70  56.8
##  8 New York Yankees   NYY   AL East    AL        92    70  56.8
##  9 Toronto Blue Jays  TOR   AL East    AL        91    71  56.2
## 10 Baltimore Orioles  BAL   AL East    AL        52   110  32.1
## # … with 20 more rows
…
ans <- ans1 %>% 
  full_join(ans2) %>% 
  arrange(desc(OPS))

ans <- ans %>% 
  mutate(rep = case_when(
    str_sub(Name) == "Jon Lester" & (!ERA == 4.71) ~ "repeat", 
    str_sub(Name) == "Max Scherzer" & (!ERA == 2.46) ~ "repeat")) %>% 
  filter(is.na(rep)) %>% 
  select(-rep) %>% 
  print(n = 10, width = Inf)

## # A tibble: 30 × 9
##    Name              Tm       PA    BA    HR   OPS ERA      SO    IP
##    <chr>             <chr> <dbl> <dbl> <dbl> <dbl> <chr> <dbl> <dbl>
##  1 Shohei Ohtani     LAA     639 0.257    46 0.965 3.18    156  130.
##  2 German Marquez    COL      60 0.264     1 0.679 4.40    176  180 
##  3 Max Fried         ATL      67 0.273     0 0.649 3.04    158  165.
##  4 Jon Lester        TOT      51 0.167     1 0.471 4.71     91  141.
##  5 Wade Miley        CIN      59 0.185     0 0.469 3.37    125  163 
##  6 Julio Urias       LAD      70 0.203     0 0.454 2.96    195  185.
##  7 Logan Webb        SFG      53 0.13      1 0.449 3.03    158  148.
##  8 Aaron Nola        PHI      63 0.143     0 0.416 4.63    223  180.
##  9 Madison Bumgarner ARI      52 0.103     0 0.408 4.67    124  146.
## 10 Kevin Gausman     SFG      62 0.185     0 0.396 2.81    227  192 
## # … with 20 more rows
…
