…
To finish, I created a data set with one row per star and a column for the number of planets found by each star. Then, I found the mean and median of the data set.

stars <- planets %>% 
  group_by(star) %>% 
  summarise(n = n()) %>% 
  arrange(desc(n))

stars

## # A tibble: 3,271 × 2
##    star           n
##    <chr>      <int>
##  1 KOI-351        8
##  2 TRAPPIST-1     7
##  3 HD 10180       6
##  4 HD 219134      6
##  5 HD 34445       6
##  6 K2-138         6
##  7 Kepler-11      6
##  8 Kepler-20      6
##  9 Kepler-80      6
## 10 TOI-178        6
## # … with 3,261 more rows
…
