…
We see that 2020 passenger totals were way lower than 2019 (due to COVID-19) and that there are the most passenger arrivals during the summer (Jun-Aug), peaking in July.

Then, I created a table to find the average number of passengers per day of the week for each year. I graphed the data first all together, then separately by year.

q4 <- ord1 %>%
  select(wday, year, passengers) %>% 
  group_by(wday, year) %>% 
  summarize(n = n(), avg_passengers = sum(passengers) / n) %>% 
  select(-n)
q4  

## # A tibble: 35 × 3
## # Groups:   wday [7]
##    wday    year avg_passengers
##    <ord>  <dbl>          <dbl>
##  1 Sunday  2016           780.
##  2 Sunday  2017           834.
##  3 Sunday  2018           874.
##  4 Sunday  2019           902.
##  5 Sunday  2020           364.
##  6 Monday  2016           741.
##  7 Monday  2017           783.
##  8 Monday  2018           796.
##  9 Monday  2019           822.
## 10 Monday  2020           345.
## # … with 25 more rows
…
q6 <- ord1 %>% 
  select(date, us_avg_wait, non_us_avg_wait) %>% 
  mutate(month = month(date)) %>%
  mutate(year = year(date)) %>% 
  mutate( Season = case_when(
      month == 3 | month == 4 | month == 5 ~ "Spring",
      month == 6 | month == 7 | month == 8 ~ "Summer",
      month == 9 | month == 10 | month == 11 ~ "Fall",
      month == 12 | month == 1 | month == 2 ~ "Winter")) %>% 
  select(-date, -month) 
q6

## # A tibble: 31,928 × 4
##    us_avg_wait non_us_avg_wait  year Season
##          <dbl>           <dbl> <dbl> <chr> 
##  1           8               5  2016 Winter
##  2          28              29  2016 Winter
##  3          12              23  2016 Winter
##  4           4              15  2016 Winter
##  5           8              17  2016 Winter
##  6           5              23  2016 Winter
##  7          40              55  2016 Winter
##  8           3               4  2016 Winter
##  9           8              12  2016 Winter
## 10          13              22  2016 Winter
## # … with 31,918 more rows
…
q8_1 <- q8_1 %>%
  mutate(i = case_when(
    time_of_day == "Overnight" ~ 1, 
    time_of_day == "Early Morning" ~ 2, 
    time_of_day == "Morning" ~ 3, 
    time_of_day == "Afternoon" ~ 4, 
    time_of_day == "Early Evening" ~ 5, 
    time_of_day == "Late Evening" ~ 6))

ans <- q8_1 %>% 
  arrange(i) %>% 
  select(wday, booth_rate, time_of_day)
ans

## # A tibble: 23,419 × 3
##    wday     booth_rate time_of_day
##    <ord>         <dbl> <chr>      
##  1 Sunday        368.  Overnight  
##  2 Monday         56.3 Overnight  
##  3 Saturday       74.7 Overnight  
##  4 Sunday        174.  Overnight  
##  5 Saturday      300   Overnight  
##  6 Saturday      186.  Overnight  
##  7 Sunday        447.  Overnight  
##  8 Saturday      236.  Overnight  
##  9 Sunday        108   Overnight  
## 10 Sunday        141.  Overnight  
## # … with 23,409 more rows
…
